%YAML 1.1
%TAG !u! tag:unity3d.com,2011:
--- !u!114 &11400000
MonoBehaviour:
  m_ObjectHideFlags: 0
  m_PrefabParentObject: {fileID: 0}
  m_PrefabInternal: {fileID: 0}
  m_GameObject: {fileID: 0}
  m_Enabled: 1
  m_EditorHideFlags: 0
  m_Script: {fileID: 11500000, guid: 98696678f4fde4d03ae0a59e1e0bad10, type: 3}
  m_Name: FacebookFyberBundle
  m_EditorClassIdentifier: 
  enabled: 1
  overridenConfigs:
  - placementId
  - testDeviceHash
  placementId: 1482889472009665_1629140714051206
  bannerPlacementId: 
  testDeviceHash: c69fb19e69112a6616100111061f85c9
